{
    "$schema": "https://json.schemastore.org/nest-cli",
    "collection": "@nestjs/schematics",
    "sourceRoot": "src",
    "compilerOptions": {
        "assets": ["modules/mail/templates/**/*"]
    }
}
